pc_adder/tb_pc_adder.vcd
$date
	Thu Sep 05 20:10:52 2024
$end
$version
	Icarus Verilog
$end
$timescale
	1ns
$end
$scope module tb_pc_adder $end
$var wire 32 ! Q [31:0] $end
$var parameter 32 " RATE $end
$var reg 1 # CLK $end
$var reg 1 $ RST $end
$scope module pa $end
$var wire 1 # CLK $end
$var wire 32 % Q [31:0] $end
$var wire 1 $ RST $end
$var wire 32 & b [31:0] $end
$var wire 32 ' in_Q [31:0] $end
$var wire 32 ( D [31:0] $end
$scope module adder $end
$var wire 32 ) b [31:0] $end
$var wire 32 * c_out [31:0] $end
$var wire 32 + g [31:0] $end
$var wire 32 , p [31:0] $end
$var wire 32 - s [31:0] $end
$var wire 32 . c_in [31:0] $end
$var wire 1 / c $end
$var wire 32 0 a [31:0] $end
$upscope $end
$scope module pc $end
$var wire 1 # CLK $end
$var wire 32 1 D [31:0] $end
$var wire 1 $ RST $end
$var reg 32 2 Q [31:0] $end
$upscope $end
$upscope $end
$upscope $end
$enddefinitions $end
$comment Show the parameter values. $end
$dumpall
b1100100 "
$end
#0
$dumpvars
bx 2
bx 1
bx 0
x/
bx000 .
bx -
bx ,
b0x00 +
bx00 *
b100 )
bx (
bx '
b100 &
bx %
0$
0#
bx !
$end
#10
0/
b0 .
b100 (
b100 -
b100 1
b0 *
b100 ,
b0 +
b0 !
b0 %
b0 '
b0 0
b0 2
1$
#50
1#
#100
0#
#120
0$
#150
b1000 .
b1000 (
b1000 -
b1000 1
b100 *
b0 ,
b100 +
b100 !
b100 %
b100 '
b100 0
b100 2
1#
#200
0#
#250
b0 .
b1100 (
b1100 -
b1100 1
b0 *
b1100 ,
b0 +
b1000 !
b1000 %
b1000 '
b1000 0
b1000 2
1#
#300
0#
#350
b11000 .
b10000 (
b10000 -
b10000 1
b1100 *
b1000 ,
b100 +
b1100 !
b1100 %
b1100 '
b1100 0
b1100 2
1#
#400
0#
#450
b0 .
b10100 (
b10100 -
b10100 1
b0 *
b10100 ,
b0 +
b10000 !
b10000 %
b10000 '
b10000 0
b10000 2
1#
#500
0#
#550
b1000 .
b11000 (
b11000 -
b11000 1
b100 *
b10000 ,
b100 +
b10100 !
b10100 %
b10100 '
b10100 0
b10100 2
1#
#600
0#
#650
b0 .
b11100 (
b11100 -
b11100 1
b0 *
b11100 ,
b0 +
b11000 !
b11000 %
b11000 '
b11000 0
b11000 2
1#
#700
0#
#750
b111000 .
b100000 (
b100000 -
b100000 1
b11100 *
b11000 ,
b100 +
b11100 !
b11100 %
b11100 '
b11100 0
b11100 2
1#
#800
0#
#850
b0 .
b100100 (
b100100 -
b100100 1
b0 *
b100100 ,
b0 +
b100000 !
b100000 %
b100000 '
b100000 0
b100000 2
1#
#900
0#
#950
b1000 .
b101000 (
b101000 -
b101000 1
b100 *
b100000 ,
b100 +
b100100 !
b100100 %
b100100 '
b100100 0
b100100 2
1#
#1000
0#
#1050
b0 .
b101100 (
b101100 -
b101100 1
b0 *
b101100 ,
b0 +
b101000 !
b101000 %
b101000 '
b101000 0
b101000 2
1#
#1100
0#
#1150
b11000 .
b110000 (
b110000 -
b110000 1
b1100 *
b101000 ,
b100 +
b101100 !
b101100 %
b101100 '
b101100 0
b101100 2
1#
#1200
0#
#1250
b0 .
b110100 (
b110100 -
b110100 1
b0 *
b110100 ,
b0 +
b110000 !
b110000 %
b110000 '
b110000 0
b110000 2
1#
#1300
0#
#1350
b1000 .
b111000 (
b111000 -
b111000 1
b100 *
b110000 ,
b100 +
b110100 !
b110100 %
b110100 '
b110100 0
b110100 2
1#
#1400
0#
#1450
b0 .
b111100 (
b111100 -
b111100 1
b0 *
b111100 ,
b0 +
b111000 !
b111000 %
b111000 '
b111000 0
b111000 2
1#
#1500
0#
#1550
b1111000 .
b1000000 (
b1000000 -
b1000000 1
b111100 *
b111000 ,
b100 +
b111100 !
b111100 %
b111100 '
b111100 0
b111100 2
1#
#1600
0#
#1650
b0 .
b1000100 (
b1000100 -
b1000100 1
b0 *
b1000100 ,
b0 +
b1000000 !
b1000000 %
b1000000 '
b1000000 0
b1000000 2
1#
#1700
0#
#1750
b1000 .
b1001000 (
b1001000 -
b1001000 1
b100 *
b1000000 ,
b100 +
b1000100 !
b1000100 %
b1000100 '
b1000100 0
b1000100 2
1#
#1800
0#
#1850
b0 .
b1001100 (
b1001100 -
b1001100 1
b0 *
b1001100 ,
b0 +
b1001000 !
b1001000 %
b1001000 '
b1001000 0
b1001000 2
1#
#1900
0#
#1950
b11000 .
b1010000 (
b1010000 -
b1010000 1
b1100 *
b1001000 ,
b100 +
b1001100 !
b1001100 %
b1001100 '
b1001100 0
b1001100 2
1#
#2000
0#
#2050
b0 .
b1010100 (
b1010100 -
b1010100 1
b0 *
b1010100 ,
b0 +
b1010000 !
b1010000 %
b1010000 '
b1010000 0
b1010000 2
1#
#2100
0#
#2150
b1000 .
b1011000 (
b1011000 -
b1011000 1
b100 *
b1010000 ,
b100 +
b1010100 !
b1010100 %
b1010100 '
b1010100 0
b1010100 2
1#
#2200
0#
#2250
b0 .
b1011100 (
b1011100 -
b1011100 1
b0 *
b1011100 ,
b0 +
b1011000 !
b1011000 %
b1011000 '
b1011000 0
b1011000 2
1#
#2300
0#
#2350
b111000 .
b1100000 (
b1100000 -
b1100000 1
b11100 *
b1011000 ,
b100 +
b1011100 !
b1011100 %
b1011100 '
b1011100 0
b1011100 2
1#
#2400
0#
#2450
b0 .
b1100100 (
b1100100 -
b1100100 1
b0 *
b1100100 ,
b0 +
b1100000 !
b1100000 %
b1100000 '
b1100000 0
b1100000 2
1#
#2500
0#
#2550
b1000 .
b1101000 (
b1101000 -
b1101000 1
b100 *
b1100000 ,
b100 +
b1100100 !
b1100100 %
b1100100 '
b1100100 0
b1100100 2
1#
#2600
0#
#2650
b0 .
b1101100 (
b1101100 -
b1101100 1
b0 *
b1101100 ,
b0 +
b1101000 !
b1101000 %
b1101000 '
b1101000 0
b1101000 2
1#
#2700
0#
#2750
b11000 .
b1110000 (
b1110000 -
b1110000 1
b1100 *
b1101000 ,
b100 +
b1101100 !
b1101100 %
b1101100 '
b1101100 0
b1101100 2
1#
#2800
0#
#2850
b0 .
b1110100 (
b1110100 -
b1110100 1
b0 *
b1110100 ,
b0 +
b1110000 !
b1110000 %
b1110000 '
b1110000 0
b1110000 2
1#
#2900
0#
#2950
b1000 .
b1111000 (
b1111000 -
b1111000 1
b100 *
b1110000 ,
b100 +
b1110100 !
b1110100 %
b1110100 '
b1110100 0
b1110100 2
1#
#3000
0#
#3050
b0 .
b1111100 (
b1111100 -
b1111100 1
b0 *
b1111100 ,
b0 +
b1111000 !
b1111000 %
b1111000 '
b1111000 0
b1111000 2
1#
#3100
0#
#3150
b11111000 .
b10000000 (
b10000000 -
b10000000 1
b1111100 *
b1111000 ,
b100 +
b1111100 !
b1111100 %
b1111100 '
b1111100 0
b1111100 2
1#
#3200
0#
#3250
b0 .
b10000100 (
b10000100 -
b10000100 1
b0 *
b10000100 ,
b0 +
b10000000 !
b10000000 %
b10000000 '
b10000000 0
b10000000 2
1#
#3300
0#
#3350
b1000 .
b10001000 (
b10001000 -
b10001000 1
b100 *
b10000000 ,
b100 +
b10000100 !
b10000100 %
b10000100 '
b10000100 0
b10000100 2
1#
#3400
0#
#3450
b0 .
b10001100 (
b10001100 -
b10001100 1
b0 *
b10001100 ,
b0 +
b10001000 !
b10001000 %
b10001000 '
b10001000 0
b10001000 2
1#
#3500
0#
#3550
b11000 .
b10010000 (
b10010000 -
b10010000 1
b1100 *
b10001000 ,
b100 +
b10001100 !
b10001100 %
b10001100 '
b10001100 0
b10001100 2
1#
#3600
0#
#3650
b0 .
b10010100 (
b10010100 -
b10010100 1
b0 *
b10010100 ,
b0 +
b10010000 !
b10010000 %
b10010000 '
b10010000 0
b10010000 2
1#
#3700
0#
#3750
b1000 .
b10011000 (
b10011000 -
b10011000 1
b100 *
b10010000 ,
b100 +
b10010100 !
b10010100 %
b10010100 '
b10010100 0
b10010100 2
1#
#3800
0#
#3850
b0 .
b10011100 (
b10011100 -
b10011100 1
b0 *
b10011100 ,
b0 +
b10011000 !
b10011000 %
b10011000 '
b10011000 0
b10011000 2
1#
#3900
0#
#3950
b111000 .
b10100000 (
b10100000 -
b10100000 1
b11100 *
b10011000 ,
b100 +
b10011100 !
b10011100 %
b10011100 '
b10011100 0
b10011100 2
1#
#4000
0#
#4050
b0 .
b10100100 (
b10100100 -
b10100100 1
b0 *
b10100100 ,
b0 +
b10100000 !
b10100000 %
b10100000 '
b10100000 0
b10100000 2
1#
#4100
0#
#4150
b1000 .
b10101000 (
b10101000 -
b10101000 1
b100 *
b10100000 ,
b100 +
b10100100 !
b10100100 %
b10100100 '
b10100100 0
b10100100 2
1#
#4200
0#
#4250
b0 .
b10101100 (
b10101100 -
b10101100 1
b0 *
b10101100 ,
b0 +
b10101000 !
b10101000 %
b10101000 '
b10101000 0
b10101000 2
1#
#4300
0#
#4350
b11000 .
b10110000 (
b10110000 -
b10110000 1
b1100 *
b10101000 ,
b100 +
b10101100 !
b10101100 %
b10101100 '
b10101100 0
b10101100 2
1#
#4400
0#
#4450
b0 .
b10110100 (
b10110100 -
b10110100 1
b0 *
b10110100 ,
b0 +
b10110000 !
b10110000 %
b10110000 '
b10110000 0
b10110000 2
1#
#4500
0#
#4550
b1000 .
b10111000 (
b10111000 -
b10111000 1
b100 *
b10110000 ,
b100 +
b10110100 !
b10110100 %
b10110100 '
b10110100 0
b10110100 2
1#
#4600
0#
#4650
b0 .
b10111100 (
b10111100 -
b10111100 1
b0 *
b10111100 ,
b0 +
b10111000 !
b10111000 %
b10111000 '
b10111000 0
b10111000 2
1#
#4700
0#
#4750
b1111000 .
b11000000 (
b11000000 -
b11000000 1
b111100 *
b10111000 ,
b100 +
b10111100 !
b10111100 %
b10111100 '
b10111100 0
b10111100 2
1#
#4800
0#
#4850
b0 .
b11000100 (
b11000100 -
b11000100 1
b0 *
b11000100 ,
b0 +
b11000000 !
b11000000 %
b11000000 '
b11000000 0
b11000000 2
1#
#4900
0#
#4950
b1000 .
b11001000 (
b11001000 -
b11001000 1
b100 *
b11000000 ,
b100 +
b11000100 !
b11000100 %
b11000100 '
b11000100 0
b11000100 2
1#
#5000
0#
#5050
b0 .
b11001100 (
b11001100 -
b11001100 1
b0 *
b11001100 ,
b0 +
b11001000 !
b11001000 %
b11001000 '
b11001000 0
b11001000 2
1#
#5100
0#
#5150
b11000 .
b11010000 (
b11010000 -
b11010000 1
b1100 *
b11001000 ,
b100 +
b11001100 !
b11001100 %
b11001100 '
b11001100 0
b11001100 2
1#
#5200
0#
#5250
b0 .
b11010100 (
b11010100 -
b11010100 1
b0 *
b11010100 ,
b0 +
b11010000 !
b11010000 %
b11010000 '
b11010000 0
b11010000 2
1#
#5300
0#
#5350
b1000 .
b11011000 (
b11011000 -
b11011000 1
b100 *
b11010000 ,
b100 +
b11010100 !
b11010100 %
b11010100 '
b11010100 0
b11010100 2
1#
#5400
0#
#5450
b0 .
b11011100 (
b11011100 -
b11011100 1
b0 *
b11011100 ,
b0 +
b11011000 !
b11011000 %
b11011000 '
b11011000 0
b11011000 2
1#
#5500
0#
#5550
b111000 .
b11100000 (
b11100000 -
b11100000 1
b11100 *
b11011000 ,
b100 +
b11011100 !
b11011100 %
b11011100 '
b11011100 0
b11011100 2
1#
#5600
0#
#5650
b0 .
b11100100 (
b11100100 -
b11100100 1
b0 *
b11100100 ,
b0 +
b11100000 !
b11100000 %
b11100000 '
b11100000 0
b11100000 2
1#
#5700
0#
#5750
b1000 .
b11101000 (
b11101000 -
b11101000 1
b100 *
b11100000 ,
b100 +
b11100100 !
b11100100 %
b11100100 '
b11100100 0
b11100100 2
1#
#5800
0#
#5850
b0 .
b11101100 (
b11101100 -
b11101100 1
b0 *
b11101100 ,
b0 +
b11101000 !
b11101000 %
b11101000 '
b11101000 0
b11101000 2
1#
#5900
0#
#5950
b11000 .
b11110000 (
b11110000 -
b11110000 1
b1100 *
b11101000 ,
b100 +
b11101100 !
b11101100 %
b11101100 '
b11101100 0
b11101100 2
1#
#6000
0#
#6050
b0 .
b11110100 (
b11110100 -
b11110100 1
b0 *
b11110100 ,
b0 +
b11110000 !
b11110000 %
b11110000 '
b11110000 0
b11110000 2
1#
#6100
0#
#6150
b1000 .
b11111000 (
b11111000 -
b11111000 1
b100 *
b11110000 ,
b100 +
b11110100 !
b11110100 %
b11110100 '
b11110100 0
b11110100 2
1#
#6200
0#
#6250
b0 .
b11111100 (
b11111100 -
b11111100 1
b0 *
b11111100 ,
b0 +
b11111000 !
b11111000 %
b11111000 '
b11111000 0
b11111000 2
1#
#6300
0#
#6350
b111111000 .
b100000000 (
b100000000 -
b100000000 1
b11111100 *
b11111000 ,
b100 +
b11111100 !
b11111100 %
b11111100 '
b11111100 0
b11111100 2
1#
#6400
0#
#6450
b0 .
b100000100 (
b100000100 -
b100000100 1
b0 *
b100000100 ,
b0 +
b100000000 !
b100000000 %
b100000000 '
b100000000 0
b100000000 2
1#
#6500
0#
#6550
b1000 .
b100001000 (
b100001000 -
b100001000 1
b100 *
b100000000 ,
b100 +
b100000100 !
b100000100 %
b100000100 '
b100000100 0
b100000100 2
1#
#6600
0#
#6650
b0 .
b100001100 (
b100001100 -
b100001100 1
b0 *
b100001100 ,
b0 +
b100001000 !
b100001000 %
b100001000 '
b100001000 0
b100001000 2
1#
#6700
0#
#6750
b11000 .
b100010000 (
b100010000 -
b100010000 1
b1100 *
b100001000 ,
b100 +
b100001100 !
b100001100 %
b100001100 '
b100001100 0
b100001100 2
1#
#6800
0#
#6850
b0 .
b100010100 (
b100010100 -
b100010100 1
b0 *
b100010100 ,
b0 +
b100010000 !
b100010000 %
b100010000 '
b100010000 0
b100010000 2
1#
#6900
0#
#6950
b1000 .
b100011000 (
b100011000 -
b100011000 1
b100 *
b100010000 ,
b100 +
b100010100 !
b100010100 %
b100010100 '
b100010100 0
b100010100 2
1#
#7000
0#
#7050
b0 .
b100011100 (
b100011100 -
b100011100 1
b0 *
b100011100 ,
b0 +
b100011000 !
b100011000 %
b100011000 '
b100011000 0
b100011000 2
1#
#7100
0#
#7150
b111000 .
b100100000 (
b100100000 -
b100100000 1
b11100 *
b100011000 ,
b100 +
b100011100 !
b100011100 %
b100011100 '
b100011100 0
b100011100 2
1#
#7200
0#
#7250
b0 .
b100100100 (
b100100100 -
b100100100 1
b0 *
b100100100 ,
b0 +
b100100000 !
b100100000 %
b100100000 '
b100100000 0
b100100000 2
1#
#7300
0#
#7350
b1000 .
b100101000 (
b100101000 -
b100101000 1
b100 *
b100100000 ,
b100 +
b100100100 !
b100100100 %
b100100100 '
b100100100 0
b100100100 2
1#
#7400
0#
#7450
b0 .
b100101100 (
b100101100 -
b100101100 1
b0 *
b100101100 ,
b0 +
b100101000 !
b100101000 %
b100101000 '
b100101000 0
b100101000 2
1#
#7500
0#
#7550
b11000 .
b100110000 (
b100110000 -
b100110000 1
b1100 *
b100101000 ,
b100 +
b100101100 !
b100101100 %
b100101100 '
b100101100 0
b100101100 2
1#
#7600
0#
#7650
b0 .
b100110100 (
b100110100 -
b100110100 1
b0 *
b100110100 ,
b0 +
b100110000 !
b100110000 %
b100110000 '
b100110000 0
b100110000 2
1#
#7700
0#
#7750
b1000 .
b100111000 (
b100111000 -
b100111000 1
b100 *
b100110000 ,
b100 +
b100110100 !
b100110100 %
b100110100 '
b100110100 0
b100110100 2
1#
#7800
0#
#7850
b0 .
b100111100 (
b100111100 -
b100111100 1
b0 *
b100111100 ,
b0 +
b100111000 !
b100111000 %
b100111000 '
b100111000 0
b100111000 2
1#
#7900
0#
#7950
b1111000 .
b101000000 (
b101000000 -
b101000000 1
b111100 *
b100111000 ,
b100 +
b100111100 !
b100111100 %
b100111100 '
b100111100 0
b100111100 2
1#
#8000
0#
#8050
b0 .
b101000100 (
b101000100 -
b101000100 1
b0 *
b101000100 ,
b0 +
b101000000 !
b101000000 %
b101000000 '
b101000000 0
b101000000 2
1#
#8100
0#
#8150
b1000 .
b101001000 (
b101001000 -
b101001000 1
b100 *
b101000000 ,
b100 +
b101000100 !
b101000100 %
b101000100 '
b101000100 0
b101000100 2
1#
#8200
0#
#8250
b0 .
b101001100 (
b101001100 -
b101001100 1
b0 *
b101001100 ,
b0 +
b101001000 !
b101001000 %
b101001000 '
b101001000 0
b101001000 2
1#
#8300
0#
#8350
b11000 .
b101010000 (
b101010000 -
b101010000 1
b1100 *
b101001000 ,
b100 +
b101001100 !
b101001100 %
b101001100 '
b101001100 0
b101001100 2
1#
#8400
0#
#8450
b0 .
b101010100 (
b101010100 -
b101010100 1
b0 *
b101010100 ,
b0 +
b101010000 !
b101010000 %
b101010000 '
b101010000 0
b101010000 2
1#
#8500
0#
#8550
b1000 .
b101011000 (
b101011000 -
b101011000 1
b100 *
b101010000 ,
b100 +
b101010100 !
b101010100 %
b101010100 '
b101010100 0
b101010100 2
1#
#8600
0#
#8650
b0 .
b101011100 (
b101011100 -
b101011100 1
b0 *
b101011100 ,
b0 +
b101011000 !
b101011000 %
b101011000 '
b101011000 0
b101011000 2
1#
#8700
0#
#8750
b111000 .
b101100000 (
b101100000 -
b101100000 1
b11100 *
b101011000 ,
b100 +
b101011100 !
b101011100 %
b101011100 '
b101011100 0
b101011100 2
1#
#8800
0#
#8850
b0 .
b101100100 (
b101100100 -
b101100100 1
b0 *
b101100100 ,
b0 +
b101100000 !
b101100000 %
b101100000 '
b101100000 0
b101100000 2
1#
#8900
0#
#8950
b1000 .
b101101000 (
b101101000 -
b101101000 1
b100 *
b101100000 ,
b100 +
b101100100 !
b101100100 %
b101100100 '
b101100100 0
b101100100 2
1#
#9000
0#
#9050
b0 .
b101101100 (
b101101100 -
b101101100 1
b0 *
b101101100 ,
b0 +
b101101000 !
b101101000 %
b101101000 '
b101101000 0
b101101000 2
1#
#9100
0#
#9150
b11000 .
b101110000 (
b101110000 -
b101110000 1
b1100 *
b101101000 ,
b100 +
b101101100 !
b101101100 %
b101101100 '
b101101100 0
b101101100 2
1#
#9200
0#
#9250
b0 .
b101110100 (
b101110100 -
b101110100 1
b0 *
b101110100 ,
b0 +
b101110000 !
b101110000 %
b101110000 '
b101110000 0
b101110000 2
1#
#9300
0#
#9350
b1000 .
b101111000 (
b101111000 -
b101111000 1
b100 *
b101110000 ,
b100 +
b101110100 !
b101110100 %
b101110100 '
b101110100 0
b101110100 2
1#
#9400
0#
#9450
b0 .
b101111100 (
b101111100 -
b101111100 1
b0 *
b101111100 ,
b0 +
b101111000 !
b101111000 %
b101111000 '
b101111000 0
b101111000 2
1#
#9500
0#
#9550
b11111000 .
b110000000 (
b110000000 -
b110000000 1
b1111100 *
b101111000 ,
b100 +
b101111100 !
b101111100 %
b101111100 '
b101111100 0
b101111100 2
1#
#9600
0#
#9650
b0 .
b110000100 (
b110000100 -
b110000100 1
b0 *
b110000100 ,
b0 +
b110000000 !
b110000000 %
b110000000 '
b110000000 0
b110000000 2
1#
#9700
0#
#9750
b1000 .
b110001000 (
b110001000 -
b110001000 1
b100 *
b110000000 ,
b100 +
b110000100 !
b110000100 %
b110000100 '
b110000100 0
b110000100 2
1#
#9800
0#
#9850
b0 .
b110001100 (
b110001100 -
b110001100 1
b0 *
b110001100 ,
b0 +
b110001000 !
b110001000 %
b110001000 '
b110001000 0
b110001000 2
1#
#9900
0#
#9950
b11000 .
b110010000 (
b110010000 -
b110010000 1
b1100 *
b110001000 ,
b100 +
b110001100 !
b110001100 %
b110001100 '
b110001100 0
b110001100 2
1#
#10000
0#
#10050
b0 .
b110010100 (
b110010100 -
b110010100 1
b0 *
b110010100 ,
b0 +
b110010000 !
b110010000 %
b110010000 '
b110010000 0
b110010000 2
1#
